<?xml version="1.0" encoding="UTF-8" standalone="no"?>
<!DOCTYPE svg PUBLIC "-//W3C//DTD SVG 1.1//EN" "http://www.w3.org/Graphics/SVG/1.1/DTD/svg11.dtd">
<svg xmlns:dc="http://purl.org/dc/elements/1.1/" xmlns="http://www.w3.org/2000/svg" version="1.1" xmlns:xl="http://www.w3.org/1999/xlink" viewBox="34.059945 68.604 677.3801 393.6002" width="677.3801" height="393.6002">
  <defs>
    <marker orient="auto" overflow="visible" markerUnits="strokeWidth" id="DimensionArrow_Marker" stroke-linejoin="miter" stroke-miterlimit="10" viewBox="-1 -4 7 8" markerWidth="7" markerHeight="8" color="#be1328">
      <g>
        <path d="M 0 0 L 4.8 0 M 4.8 3 L 4.8 -3 M 0 1.2 L 4.2 0 L 0 -1.2" fill="none" stroke="currentColor" stroke-width="1"/>
      </g>
    </marker>
    <marker orient="auto" overflow="visible" markerUnits="strokeWidth" id="DimensionArrow_Marker_2" stroke-linejoin="miter" stroke-miterlimit="10" viewBox="-6 -4 7 8" markerWidth="7" markerHeight="8" color="#be1328">
      <g>
        <path d="M 0 0 L -4.8 0 M -4.8 -3 L -4.8 3 M 0 -1.2 L -4.2 0 L 0 1.2" fill="none" stroke="currentColor" stroke-width="1"/>
      </g>
    </marker>
    <font-face font-family="Helvetica Neue" font-size="16" panose-1="2 0 5 3 0 0 0 2 0 4" units-per-em="1000" underline-position="-100" underline-thickness="50" slope="0" x-height="517" cap-height="714" ascent="951.9958" descent="-212.99744" font-weight="400">
      <font-face-src>
        <font-face-name name="HelveticaNeue"/>
      </font-face-src>
    </font-face>
    <font-face font-family="Helvetica Neue" font-size="16" panose-1="2 0 5 3 0 0 0 9 0 4" units-per-em="1000" underline-position="-100" underline-thickness="50" slope="-750" x-height="517" cap-height="714" ascent="957.0007" descent="-212.99744" font-style="italic" font-weight="400">
      <font-face-src>
        <font-face-name name="HelveticaNeue-Italic"/>
      </font-face-src>
    </font-face>
    <marker orient="auto" overflow="visible" markerUnits="strokeWidth" id="FilledArrow_Marker" stroke-linejoin="miter" stroke-miterlimit="10" viewBox="-1 -3 7 6" markerWidth="7" markerHeight="6" color="#0040b5">
      <g>
        <path d="M 4.8 0 L 0 -1.8 L 0 1.8 Z" fill="currentColor" stroke="currentColor" stroke-width="1"/>
      </g>
    </marker>
    <marker orient="auto" overflow="visible" markerUnits="strokeWidth" id="FilledArrow_Marker_2" stroke-linejoin="miter" stroke-miterlimit="10" viewBox="-6 -3 7 6" markerWidth="7" markerHeight="6" color="#0040b5">
      <g>
        <path d="M -4.8 0 L 0 1.8 L 0 -1.8 Z" fill="currentColor" stroke="currentColor" stroke-width="1"/>
      </g>
    </marker>
    <marker orient="auto" overflow="visible" markerUnits="strokeWidth" id="FilledArrow_Marker_3" stroke-linejoin="miter" stroke-miterlimit="10" viewBox="-1 -3 7 6" markerWidth="7" markerHeight="6" color="black">
      <g>
        <path d="M 4.8 0 L 0 -1.8 L 0 1.8 Z" fill="currentColor" stroke="currentColor" stroke-width="1"/>
      </g>
    </marker>
    <font-face font-family="Helvetica Neue" font-size="16" panose-1="2 0 8 3 0 0 0 9 0 4" units-per-em="1000" underline-position="-100" underline-thickness="50" slope="0" x-height="517" cap-height="714" ascent="975.0061" descent="-216.99524" font-weight="700">
      <font-face-src>
        <font-face-name name="HelveticaNeue-Bold"/>
      </font-face-src>
    </font-face>
  </defs>
  <metadata> Produced by OmniGraffle 7.18.5\n2021-05-14 01:14:21 +0000</metadata>
  <g id="Canvas_1" stroke-opacity="1" stroke-dasharray="none" fill="none" stroke="none" fill-opacity="1">
    <title>Canvas 1</title>
    <rect fill="white" x="34.059945" y="68.604" width="677.3801" height="393.6002"/>
    <g id="Canvas_1_Layer_1">
      <title>Layer 1</title>
      <g id="Line_24">
        <line x1="699.4" y1="437.2401" x2="311.6" y2="437.2401" marker-end="url(#DimensionArrow_Marker)" marker-start="url(#DimensionArrow_Marker_2)" stroke="#be1328" stroke-linecap="round" stroke-linejoin="round" stroke-width="2"/>
      </g>
      <g id="Graphic_4">
        <path d="M 307 225 L 451 225 C 453.7614 225 456 227.23858 456 230 L 456 270.5 C 456 273.26142 453.7614 275.5 451 275.5 L 307 275.5 C 304.23858 275.5 302 273.26142 302 270.5 L 302 230 C 302 227.23858 304.23858 225 307 225 Z" fill="white"/>
        <path d="M 307 225 L 451 225 C 453.7614 225 456 227.23858 456 230 L 456 270.5 C 456 273.26142 453.7614 275.5 451 275.5 L 307 275.5 C 304.23858 275.5 302 273.26142 302 270.5 L 302 230 C 302 227.23858 304.23858 225 307 225 Z" stroke="black" stroke-linecap="round" stroke-linejoin="round" stroke-width="2"/>
        <text transform="translate(307 241.026)" fill="black">
          <tspan font-family="Helvetica Neue" font-size="16" font-weight="400" fill="black" x="37.04" y="15">Controller</tspan>
        </text>
      </g>
      <g id="Graphic_5">
        <path d="M 307 334.5 L 451 334.5 C 453.7614 334.5 456 336.73858 456 339.5 L 456 380 C 456 382.76142 453.7614 385 451 385 L 307 385 C 304.23858 385 302 382.76142 302 380 L 302 339.5 C 302 336.73858 304.23858 334.5 307 334.5 Z" fill="white"/>
        <path d="M 307 334.5 L 451 334.5 C 453.7614 334.5 456 336.73858 456 339.5 L 456 380 C 456 382.76142 453.7614 385 451 385 L 307 385 C 304.23858 385 302 382.76142 302 380 L 302 339.5 C 302 336.73858 304.23858 334.5 307 334.5 Z" stroke="black" stroke-linecap="round" stroke-linejoin="round" stroke-width="2"/>
        <text transform="translate(307 350.526)" fill="black">
          <tspan font-family="Helvetica Neue" font-size="16" font-weight="400" fill="black" x="55.12" y="15">View</tspan>
        </text>
      </g>
      <g id="Graphic_6">
        <path d="M 560 225 L 704 225 C 706.7614 225 709 227.23858 709 230 L 709 270.5 C 709 273.26142 706.7614 275.5 704 275.5 L 560 275.5 C 557.2386 275.5 555 273.26142 555 270.5 L 555 230 C 555 227.23858 557.2386 225 560 225 Z" fill="white"/>
        <path d="M 560 225 L 704 225 C 706.7614 225 709 227.23858 709 230 L 709 270.5 C 709 273.26142 706.7614 275.5 704 275.5 L 560 275.5 C 557.2386 275.5 555 273.26142 555 270.5 L 555 230 C 555 227.23858 557.2386 225 560 225 Z" stroke="black" stroke-linecap="round" stroke-linejoin="round" stroke-width="2"/>
        <text transform="translate(560 241.026)" fill="black">
          <tspan font-family="Helvetica Neue" font-size="16" font-weight="400" fill="black" x="9.64" y="15">CollectionService</tspan>
        </text>
      </g>
      <g id="Graphic_7">
        <path d="M 458 115.5 L 548 115.5 C 550.7614 115.5 553 117.73858 553 120.5 L 553 161 C 553 163.76142 550.7614 166 548 166 L 458 166 C 455.2386 166 453 163.76142 453 161 L 453 120.5 C 453 117.73858 455.2386 115.5 458 115.5 Z" fill="white"/>
        <path d="M 458 115.5 L 548 115.5 C 550.7614 115.5 553 117.73858 553 120.5 L 553 161 C 553 163.76142 550.7614 166 548 166 L 458 166 C 455.2386 166 453 163.76142 453 161 L 453 120.5 C 453 117.73858 455.2386 115.5 458 115.5 Z" stroke="black" stroke-linecap="round" stroke-linejoin="round" stroke-width="2"/>
        <text transform="translate(458 131.526)" fill="black">
          <tspan font-family="Helvetica Neue" font-size="16" font-weight="400" fill="black" x="22.624" y="15">Model</tspan>
        </text>
      </g>
      <g id="Graphic_9">
        <text transform="translate(216.618 204.5)" fill="black">
          <tspan font-family="Helvetica Neue" font-size="16" font-style="italic" font-weight="400" fill="black" x="9.488" y="15">HTTP</tspan>
          <tspan font-family="Helvetica Neue" font-size="16" font-style="italic" font-weight="400" fill="black" x="0" y="33.448">Request</tspan>
        </text>
      </g>
      <g id="Line_11">
        <line x1="541.1" y1="250.25" x2="469.9" y2="250.25" marker-end="url(#FilledArrow_Marker)" marker-start="url(#FilledArrow_Marker_2)" stroke="#0040b5" stroke-linecap="round" stroke-linejoin="round" stroke-width="2"/>
      </g>
      <g id="Line_12">
        <line x1="408.72603" y1="224" x2="463.6045" y2="175.53879" marker-end="url(#FilledArrow_Marker)" stroke="#0040b5" stroke-linecap="round" stroke-linejoin="round" stroke-dasharray="4.0,4.0" stroke-width="2"/>
      </g>
      <g id="Line_13">
        <line x1="601.07534" y1="224" x2="543.7593" y2="175.34802" marker-end="url(#FilledArrow_Marker)" stroke="#0040b5" stroke-linecap="round" stroke-linejoin="round" stroke-dasharray="4.0,4.0" stroke-width="2"/>
      </g>
      <g id="Line_14">
        <line x1="379" y1="276.5" x2="379" y2="320.6" marker-end="url(#FilledArrow_Marker_3)" stroke="black" stroke-linecap="round" stroke-linejoin="round" stroke-width="2"/>
      </g>
      <g id="Graphic_15">
        <path d="M 41.5 225 L 185.5 225 C 188.26142 225 190.5 227.23858 190.5 230 L 190.5 270.5 C 190.5 273.26142 188.26142 275.5 185.5 275.5 L 41.5 275.5 C 38.738576 275.5 36.5 273.26142 36.5 270.5 L 36.5 230 C 36.5 227.23858 38.738576 225 41.5 225 Z" fill="white"/>
        <path d="M 41.5 225 L 185.5 225 C 188.26142 225 190.5 227.23858 190.5 230 L 190.5 270.5 C 190.5 273.26142 188.26142 275.5 185.5 275.5 L 41.5 275.5 C 38.738576 275.5 36.5 273.26142 36.5 270.5 L 36.5 230 C 36.5 227.23858 38.738576 225 41.5 225 Z" stroke="black" stroke-linecap="round" stroke-linejoin="round" stroke-width="2"/>
        <text transform="translate(41.5 241.026)" fill="black">
          <tspan font-family="Helvetica Neue" font-size="16" font-weight="400" fill="black" x="24.168" y="15">Web Browser</tspan>
        </text>
      </g>
      <g id="Line_16">
        <line x1="191.5" y1="250.25" x2="288.1" y2="250.25" marker-end="url(#FilledArrow_Marker)" stroke="#0040b5" stroke-linecap="round" stroke-linejoin="round" stroke-dasharray="4.0,4.0" stroke-width="2"/>
      </g>
      <g id="Graphic_17">
        <text transform="translate(320.032 390)" fill="black">
          <tspan font-family="Helvetica Neue" font-size="16" font-style="italic" font-weight="400" fill="black" x="7602807e-19" y="15">HTML templates</tspan>
        </text>
      </g>
      <g id="Graphic_18">
        <text transform="translate(574.36 280.5)" fill="black">
          <tspan font-family="Helvetica Neue" font-size="16" font-style="italic" font-weight="400" fill="black" x="0" y="15">Data processing</tspan>
        </text>
      </g>
      <g id="Graphic_19">
        <text transform="translate(337.376 180)" fill="black">
          <tspan font-family="Helvetica Neue" font-size="16" font-style="italic" font-weight="400" fill="black" x="2.224" y="15">Processing </tspan>
          <tspan font-family="Helvetica Neue" font-size="16" font-style="italic" font-weight="400" fill="black" x="21.92" y="33.448">Logic</tspan>
        </text>
      </g>
      <g id="Graphic_20">
        <text transform="translate(452.024 73.604)" fill="black">
          <tspan font-family="Helvetica Neue" font-size="16" font-style="italic" font-weight="400" fill="black" x="34.52" y="15">Data</tspan>
          <tspan font-family="Helvetica Neue" font-size="16" font-style="italic" font-weight="400" fill="black" x="56132876e-20" y="33.448">representation</tspan>
        </text>
      </g>
      <g id="Line_21">
        <path d="M 301 359.75 L 113.72835 359.75 L 113.72835 344.32652 L 113.5 294.4 L 113.5 289.4" marker-end="url(#FilledArrow_Marker)" stroke="#0040b5" stroke-linecap="round" stroke-linejoin="round" stroke-dasharray="4.0,4.0" stroke-width="2"/>
      </g>
      <g id="Graphic_22">
        <text transform="translate(141.5 334)" fill="black">
          <tspan font-family="Helvetica Neue" font-size="16" font-style="italic" font-weight="400" fill="black" x="9947598e-20" y="15">Formatted data</tspan>
        </text>
      </g>
      <g id="Graphic_23">
        <rect x="417.256" y="422.5" width="171.488" height="29.46411" fill="white"/>
        <text transform="translate(422.256 427.5)" fill="black">
          <tspan font-family="Helvetica Neue" font-size="16" font-weight="700" fill="black" x="2.224" y="16">Backend Processing </tspan>
        </text>
      </g>
      <g id="Line_28">
        <line x1="180.9" y1="437.74817" x2="46.1" y2="437.74817" marker-end="url(#DimensionArrow_Marker)" marker-start="url(#DimensionArrow_Marker_2)" stroke="#be1328" stroke-linecap="round" stroke-linejoin="round" stroke-width="2"/>
      </g>
      <g id="Graphic_27">
        <rect x="63.612" y="413.276" width="99.776" height="48.92822" fill="white"/>
        <text transform="translate(68.612 418.276)" fill="black">
          <tspan font-family="Helvetica Neue" font-size="16" font-weight="700" fill="black" x="10.504" y="16">Frontend </tspan>
          <tspan font-family="Helvetica Neue" font-size="16" font-weight="700" fill="black" x="2.224" y="35.46411">Processing </tspan>
        </text>
      </g>
    </g>
  </g>
</svg>
